(['C:\\___\\fancy-font-generator\\src\\main.py'],
 ['C:\\___\\fancy-font-generator\\src'],
 [],
 ['C:\\Users\\C5-User\\AppData\\Local\\Programs\\Python\\Python311\\Lib\\site-packages\\numpy\\_pyinstaller',
  'C:\\Users\\C5-User\\AppData\\Local\\Programs\\Python\\Python311\\Lib\\site-packages\\pygame\\__pyinstaller',
  'C:\\Users\\C5-User\\AppData\\Local\\Programs\\Python\\Python311\\Lib\\site-packages\\_pyinstaller_hooks_contrib\\hooks\\stdhooks',
  'C:\\Users\\C5-User\\AppData\\Local\\Programs\\Python\\Python311\\Lib\\site-packages\\_pyinstaller_hooks_contrib\\hooks'],
 {},
 [],
 [],
 False,
 {},
 0,
 [],
 [],
 '3.11.1 (tags/v3.11.1:a7a450f, Dec  6 2022, 19:58:39) [MSC v.1934 64 bit '
 '(AMD64)]',
 [('pyi_rth_inspect',
   'C:\\Users\\C5-User\\AppData\\Local\\Programs\\Python\\Python311\\Lib\\site-packages\\PyInstaller\\hooks\\rthooks\\pyi_rth_inspect.py',
   'PYSOURCE'),
  ('main', 'C:\\___\\fancy-font-generator\\src\\main.py', 'PYSOURCE')],
 [('inspect',
   'C:\\Users\\C5-User\\AppData\\Local\\Programs\\Python\\Python311\\Lib\\inspect.py',
   'PYMODULE'),
  ('importlib',
   'C:\\Users\\C5-User\\AppData\\Local\\Programs\\Python\\Python311\\Lib\\importlib\\__init__.py',
   'PYMODULE'),
  ('importlib._bootstrap_external',
   'C:\\Users\\C5-User\\AppData\\Local\\Programs\\Python\\Python311\\Lib\\importlib\\_bootstrap_external.py',
   'PYMODULE'),
  ('importlib.metadata',
   'C:\\Users\\C5-User\\AppData\\Local\\Programs\\Python\\Python311\\Lib\\importlib\\metadata\\__init__.py',
   'PYMODULE'),
  ('typing',
   'C:\\Users\\C5-User\\AppData\\Local\\Programs\\Python\\Python311\\Lib\\typing.py',
   'PYMODULE'),
  ('importlib.abc',
   'C:\\Users\\C5-User\\AppData\\Local\\Programs\\Python\\Python311\\Lib\\importlib\\abc.py',
   'PYMODULE'),
  ('importlib.resources.abc',
   'C:\\Users\\C5-User\\AppData\\Local\\Programs\\Python\\Python311\\Lib\\importlib\\resources\\abc.py',
   'PYMODULE'),
  ('importlib.resources',
   'C:\\Users\\C5-User\\AppData\\Local\\Programs\\Python\\Python311\\Lib\\importlib\\resources\\__init__.py',
   'PYMODULE'),
  ('importlib.resources._legacy',
   'C:\\Users\\C5-User\\AppData\\Local\\Programs\\Python\\Python311\\Lib\\importlib\\resources\\_legacy.py',
   'PYMODULE'),
  ('importlib.resources._common',
   'C:\\Users\\C5-User\\AppData\\Local\\Programs\\Python\\Python311\\Lib\\importlib\\resources\\_common.py',
   'PYMODULE'),
  ('importlib.resources._adapters',
   'C:\\Users\\C5-User\\AppData\\Local\\Programs\\Python\\Python311\\Lib\\importlib\\resources\\_adapters.py',
   'PYMODULE'),
  ('tempfile',
   'C:\\Users\\C5-User\\AppData\\Local\\Programs\\Python\\Python311\\Lib\\tempfile.py',
   'PYMODULE'),
  ('random',
   'C:\\Users\\C5-User\\AppData\\Local\\Programs\\Python\\Python311\\Lib\\random.py',
   'PYMODULE'),
  ('_strptime',
   'C:\\Users\\C5-User\\AppData\\Local\\Programs\\Python\\Python311\\Lib\\_strptime.py',
   'PYMODULE'),
  ('datetime',
   'C:\\Users\\C5-User\\AppData\\Local\\Programs\\Python\\Python311\\Lib\\datetime.py',
   'PYMODULE'),
  ('calendar',
   'C:\\Users\\C5-User\\AppData\\Local\\Programs\\Python\\Python311\\Lib\\calendar.py',
   'PYMODULE'),
  ('statistics',
   'C:\\Users\\C5-User\\AppData\\Local\\Programs\\Python\\Python311\\Lib\\statistics.py',
   'PYMODULE'),
  ('decimal',
   'C:\\Users\\C5-User\\AppData\\Local\\Programs\\Python\\Python311\\Lib\\decimal.py',
   'PYMODULE'),
  ('_pydecimal',
   'C:\\Users\\C5-User\\AppData\\Local\\Programs\\Python\\Python311\\Lib\\_pydecimal.py',
   'PYMODULE'),
  ('contextvars',
   'C:\\Users\\C5-User\\AppData\\Local\\Programs\\Python\\Python311\\Lib\\contextvars.py',
   'PYMODULE'),
  ('fractions',
   'C:\\Users\\C5-User\\AppData\\Local\\Programs\\Python\\Python311\\Lib\\fractions.py',
   'PYMODULE'),
  ('numbers',
   'C:\\Users\\C5-User\\AppData\\Local\\Programs\\Python\\Python311\\Lib\\numbers.py',
   'PYMODULE'),
  ('hashlib',
   'C:\\Users\\C5-User\\AppData\\Local\\Programs\\Python\\Python311\\Lib\\hashlib.py',
   'PYMODULE'),
  ('logging',
   'C:\\Users\\C5-User\\AppData\\Local\\Programs\\Python\\Python311\\Lib\\logging\\__init__.py',
   'PYMODULE'),
  ('pickle',
   'C:\\Users\\C5-User\\AppData\\Local\\Programs\\Python\\Python311\\Lib\\pickle.py',
   'PYMODULE'),
  ('pprint',
   'C:\\Users\\C5-User\\AppData\\Local\\Programs\\Python\\Python311\\Lib\\pprint.py',
   'PYMODULE'),
  ('dataclasses',
   'C:\\Users\\C5-User\\AppData\\Local\\Programs\\Python\\Python311\\Lib\\dataclasses.py',
   'PYMODULE'),
  ('copy',
   'C:\\Users\\C5-User\\AppData\\Local\\Programs\\Python\\Python311\\Lib\\copy.py',
   'PYMODULE'),
  ('_compat_pickle',
   'C:\\Users\\C5-User\\AppData\\Local\\Programs\\Python\\Python311\\Lib\\_compat_pickle.py',
   'PYMODULE'),
  ('struct',
   'C:\\Users\\C5-User\\AppData\\Local\\Programs\\Python\\Python311\\Lib\\struct.py',
   'PYMODULE'),
  ('threading',
   'C:\\Users\\C5-User\\AppData\\Local\\Programs\\Python\\Python311\\Lib\\threading.py',
   'PYMODULE'),
  ('_threading_local',
   'C:\\Users\\C5-User\\AppData\\Local\\Programs\\Python\\Python311\\Lib\\_threading_local.py',
   'PYMODULE'),
  ('string',
   'C:\\Users\\C5-User\\AppData\\Local\\Programs\\Python\\Python311\\Lib\\string.py',
   'PYMODULE'),
  ('bisect',
   'C:\\Users\\C5-User\\AppData\\Local\\Programs\\Python\\Python311\\Lib\\bisect.py',
   'PYMODULE'),
  ('shutil',
   'C:\\Users\\C5-User\\AppData\\Local\\Programs\\Python\\Python311\\Lib\\shutil.py',
   'PYMODULE'),
  ('tarfile',
   'C:\\Users\\C5-User\\AppData\\Local\\Programs\\Python\\Python311\\Lib\\tarfile.py',
   'PYMODULE'),
  ('gzip',
   'C:\\Users\\C5-User\\AppData\\Local\\Programs\\Python\\Python311\\Lib\\gzip.py',
   'PYMODULE'),
  ('_compression',
   'C:\\Users\\C5-User\\AppData\\Local\\Programs\\Python\\Python311\\Lib\\_compression.py',
   'PYMODULE'),
  ('lzma',
   'C:\\Users\\C5-User\\AppData\\Local\\Programs\\Python\\Python311\\Lib\\lzma.py',
   'PYMODULE'),
  ('bz2',
   'C:\\Users\\C5-User\\AppData\\Local\\Programs\\Python\\Python311\\Lib\\bz2.py',
   'PYMODULE'),
  ('fnmatch',
   'C:\\Users\\C5-User\\AppData\\Local\\Programs\\Python\\Python311\\Lib\\fnmatch.py',
   'PYMODULE'),
  ('importlib._abc',
   'C:\\Users\\C5-User\\AppData\\Local\\Programs\\Python\\Python311\\Lib\\importlib\\_abc.py',
   'PYMODULE'),
  ('contextlib',
   'C:\\Users\\C5-User\\AppData\\Local\\Programs\\Python\\Python311\\Lib\\contextlib.py',
   'PYMODULE'),
  ('importlib.metadata._itertools',
   'C:\\Users\\C5-User\\AppData\\Local\\Programs\\Python\\Python311\\Lib\\importlib\\metadata\\_itertools.py',
   'PYMODULE'),
  ('importlib.metadata._functools',
   'C:\\Users\\C5-User\\AppData\\Local\\Programs\\Python\\Python311\\Lib\\importlib\\metadata\\_functools.py',
   'PYMODULE'),
  ('importlib.metadata._collections',
   'C:\\Users\\C5-User\\AppData\\Local\\Programs\\Python\\Python311\\Lib\\importlib\\metadata\\_collections.py',
   'PYMODULE'),
  ('importlib.metadata._meta',
   'C:\\Users\\C5-User\\AppData\\Local\\Programs\\Python\\Python311\\Lib\\importlib\\metadata\\_meta.py',
   'PYMODULE'),
  ('importlib.metadata._adapters',
   'C:\\Users\\C5-User\\AppData\\Local\\Programs\\Python\\Python311\\Lib\\importlib\\metadata\\_adapters.py',
   'PYMODULE'),
  ('importlib.metadata._text',
   'C:\\Users\\C5-User\\AppData\\Local\\Programs\\Python\\Python311\\Lib\\importlib\\metadata\\_text.py',
   'PYMODULE'),
  ('email.message',
   'C:\\Users\\C5-User\\AppData\\Local\\Programs\\Python\\Python311\\Lib\\email\\message.py',
   'PYMODULE'),
  ('email.policy',
   'C:\\Users\\C5-User\\AppData\\Local\\Programs\\Python\\Python311\\Lib\\email\\policy.py',
   'PYMODULE'),
  ('email.contentmanager',
   'C:\\Users\\C5-User\\AppData\\Local\\Programs\\Python\\Python311\\Lib\\email\\contentmanager.py',
   'PYMODULE'),
  ('email.quoprimime',
   'C:\\Users\\C5-User\\AppData\\Local\\Programs\\Python\\Python311\\Lib\\email\\quoprimime.py',
   'PYMODULE'),
  ('email.headerregistry',
   'C:\\Users\\C5-User\\AppData\\Local\\Programs\\Python\\Python311\\Lib\\email\\headerregistry.py',
   'PYMODULE'),
  ('email._header_value_parser',
   'C:\\Users\\C5-User\\AppData\\Local\\Programs\\Python\\Python311\\Lib\\email\\_header_value_parser.py',
   'PYMODULE'),
  ('urllib',
   'C:\\Users\\C5-User\\AppData\\Local\\Programs\\Python\\Python311\\Lib\\urllib\\__init__.py',
   'PYMODULE'),
  ('email.iterators',
   'C:\\Users\\C5-User\\AppData\\Local\\Programs\\Python\\Python311\\Lib\\email\\iterators.py',
   'PYMODULE'),
  ('email.generator',
   'C:\\Users\\C5-User\\AppData\\Local\\Programs\\Python\\Python311\\Lib\\email\\generator.py',
   'PYMODULE'),
  ('email._encoded_words',
   'C:\\Users\\C5-User\\AppData\\Local\\Programs\\Python\\Python311\\Lib\\email\\_encoded_words.py',
   'PYMODULE'),
  ('base64',
   'C:\\Users\\C5-User\\AppData\\Local\\Programs\\Python\\Python311\\Lib\\base64.py',
   'PYMODULE'),
  ('getopt',
   'C:\\Users\\C5-User\\AppData\\Local\\Programs\\Python\\Python311\\Lib\\getopt.py',
   'PYMODULE'),
  ('gettext',
   'C:\\Users\\C5-User\\AppData\\Local\\Programs\\Python\\Python311\\Lib\\gettext.py',
   'PYMODULE'),
  ('email.charset',
   'C:\\Users\\C5-User\\AppData\\Local\\Programs\\Python\\Python311\\Lib\\email\\charset.py',
   'PYMODULE'),
  ('email.encoders',
   'C:\\Users\\C5-User\\AppData\\Local\\Programs\\Python\\Python311\\Lib\\email\\encoders.py',
   'PYMODULE'),
  ('email.base64mime',
   'C:\\Users\\C5-User\\AppData\\Local\\Programs\\Python\\Python311\\Lib\\email\\base64mime.py',
   'PYMODULE'),
  ('email._policybase',
   'C:\\Users\\C5-User\\AppData\\Local\\Programs\\Python\\Python311\\Lib\\email\\_policybase.py',
   'PYMODULE'),
  ('email.header',
   'C:\\Users\\C5-User\\AppData\\Local\\Programs\\Python\\Python311\\Lib\\email\\header.py',
   'PYMODULE'),
  ('email.errors',
   'C:\\Users\\C5-User\\AppData\\Local\\Programs\\Python\\Python311\\Lib\\email\\errors.py',
   'PYMODULE'),
  ('email.utils',
   'C:\\Users\\C5-User\\AppData\\Local\\Programs\\Python\\Python311\\Lib\\email\\utils.py',
   'PYMODULE'),
  ('email._parseaddr',
   'C:\\Users\\C5-User\\AppData\\Local\\Programs\\Python\\Python311\\Lib\\email\\_parseaddr.py',
   'PYMODULE'),
  ('urllib.parse',
   'C:\\Users\\C5-User\\AppData\\Local\\Programs\\Python\\Python311\\Lib\\urllib\\parse.py',
   'PYMODULE'),
  ('socket',
   'C:\\Users\\C5-User\\AppData\\Local\\Programs\\Python\\Python311\\Lib\\socket.py',
   'PYMODULE'),
  ('selectors',
   'C:\\Users\\C5-User\\AppData\\Local\\Programs\\Python\\Python311\\Lib\\selectors.py',
   'PYMODULE'),
  ('quopri',
   'C:\\Users\\C5-User\\AppData\\Local\\Programs\\Python\\Python311\\Lib\\quopri.py',
   'PYMODULE'),
  ('textwrap',
   'C:\\Users\\C5-User\\AppData\\Local\\Programs\\Python\\Python311\\Lib\\textwrap.py',
   'PYMODULE'),
  ('zipfile',
   'C:\\Users\\C5-User\\AppData\\Local\\Programs\\Python\\Python311\\Lib\\zipfile.py',
   'PYMODULE'),
  ('py_compile',
   'C:\\Users\\C5-User\\AppData\\Local\\Programs\\Python\\Python311\\Lib\\py_compile.py',
   'PYMODULE'),
  ('importlib.util',
   'C:\\Users\\C5-User\\AppData\\Local\\Programs\\Python\\Python311\\Lib\\importlib\\util.py',
   'PYMODULE'),
  ('pathlib',
   'C:\\Users\\C5-User\\AppData\\Local\\Programs\\Python\\Python311\\Lib\\pathlib.py',
   'PYMODULE'),
  ('email',
   'C:\\Users\\C5-User\\AppData\\Local\\Programs\\Python\\Python311\\Lib\\email\\__init__.py',
   'PYMODULE'),
  ('email.parser',
   'C:\\Users\\C5-User\\AppData\\Local\\Programs\\Python\\Python311\\Lib\\email\\parser.py',
   'PYMODULE'),
  ('email.feedparser',
   'C:\\Users\\C5-User\\AppData\\Local\\Programs\\Python\\Python311\\Lib\\email\\feedparser.py',
   'PYMODULE'),
  ('csv',
   'C:\\Users\\C5-User\\AppData\\Local\\Programs\\Python\\Python311\\Lib\\csv.py',
   'PYMODULE'),
  ('importlib.readers',
   'C:\\Users\\C5-User\\AppData\\Local\\Programs\\Python\\Python311\\Lib\\importlib\\readers.py',
   'PYMODULE'),
  ('importlib.resources.readers',
   'C:\\Users\\C5-User\\AppData\\Local\\Programs\\Python\\Python311\\Lib\\importlib\\resources\\readers.py',
   'PYMODULE'),
  ('importlib.resources._itertools',
   'C:\\Users\\C5-User\\AppData\\Local\\Programs\\Python\\Python311\\Lib\\importlib\\resources\\_itertools.py',
   'PYMODULE'),
  ('importlib._bootstrap',
   'C:\\Users\\C5-User\\AppData\\Local\\Programs\\Python\\Python311\\Lib\\importlib\\_bootstrap.py',
   'PYMODULE'),
  ('argparse',
   'C:\\Users\\C5-User\\AppData\\Local\\Programs\\Python\\Python311\\Lib\\argparse.py',
   'PYMODULE'),
  ('token',
   'C:\\Users\\C5-User\\AppData\\Local\\Programs\\Python\\Python311\\Lib\\token.py',
   'PYMODULE'),
  ('tokenize',
   'C:\\Users\\C5-User\\AppData\\Local\\Programs\\Python\\Python311\\Lib\\tokenize.py',
   'PYMODULE'),
  ('importlib.machinery',
   'C:\\Users\\C5-User\\AppData\\Local\\Programs\\Python\\Python311\\Lib\\importlib\\machinery.py',
   'PYMODULE'),
  ('dis',
   'C:\\Users\\C5-User\\AppData\\Local\\Programs\\Python\\Python311\\Lib\\dis.py',
   'PYMODULE'),
  ('opcode',
   'C:\\Users\\C5-User\\AppData\\Local\\Programs\\Python\\Python311\\Lib\\opcode.py',
   'PYMODULE'),
  ('ast',
   'C:\\Users\\C5-User\\AppData\\Local\\Programs\\Python\\Python311\\Lib\\ast.py',
   'PYMODULE'),
  ('_py_abc',
   'C:\\Users\\C5-User\\AppData\\Local\\Programs\\Python\\Python311\\Lib\\_py_abc.py',
   'PYMODULE'),
  ('subprocess',
   'C:\\Users\\C5-User\\AppData\\Local\\Programs\\Python\\Python311\\Lib\\subprocess.py',
   'PYMODULE'),
  ('signal',
   'C:\\Users\\C5-User\\AppData\\Local\\Programs\\Python\\Python311\\Lib\\signal.py',
   'PYMODULE'),
  ('tracemalloc',
   'C:\\Users\\C5-User\\AppData\\Local\\Programs\\Python\\Python311\\Lib\\tracemalloc.py',
   'PYMODULE'),
  ('stringprep',
   'C:\\Users\\C5-User\\AppData\\Local\\Programs\\Python\\Python311\\Lib\\stringprep.py',
   'PYMODULE')],
 [('python311.dll',
   'C:\\Users\\C5-User\\AppData\\Local\\Programs\\Python\\Python311\\python311.dll',
   'BINARY'),
  ('_decimal.pyd',
   'C:\\Users\\C5-User\\AppData\\Local\\Programs\\Python\\Python311\\DLLs\\_decimal.pyd',
   'EXTENSION'),
  ('_hashlib.pyd',
   'C:\\Users\\C5-User\\AppData\\Local\\Programs\\Python\\Python311\\DLLs\\_hashlib.pyd',
   'EXTENSION'),
  ('_lzma.pyd',
   'C:\\Users\\C5-User\\AppData\\Local\\Programs\\Python\\Python311\\DLLs\\_lzma.pyd',
   'EXTENSION'),
  ('_bz2.pyd',
   'C:\\Users\\C5-User\\AppData\\Local\\Programs\\Python\\Python311\\DLLs\\_bz2.pyd',
   'EXTENSION'),
  ('unicodedata.pyd',
   'C:\\Users\\C5-User\\AppData\\Local\\Programs\\Python\\Python311\\DLLs\\unicodedata.pyd',
   'EXTENSION'),
  ('select.pyd',
   'C:\\Users\\C5-User\\AppData\\Local\\Programs\\Python\\Python311\\DLLs\\select.pyd',
   'EXTENSION'),
  ('_socket.pyd',
   'C:\\Users\\C5-User\\AppData\\Local\\Programs\\Python\\Python311\\DLLs\\_socket.pyd',
   'EXTENSION'),
  ('VCRUNTIME140.dll',
   'C:\\Users\\C5-User\\AppData\\Local\\Programs\\Python\\Python311\\VCRUNTIME140.dll',
   'BINARY'),
  ('libcrypto-1_1.dll',
   'C:\\Users\\C5-User\\AppData\\Local\\Programs\\Python\\Python311\\DLLs\\libcrypto-1_1.dll',
   'BINARY')],
 [],
 [],
 [('base_library.zip',
   'C:\\___\\fancy-font-generator\\build\\Fancy Font Generator '
   'V1.0\\base_library.zip',
   'DATA')])
