('C:\\___\\fancy-font-generator\\build\\Fancy Font Generator V1.0\\Fancy Font '
 'Generator V1.0.pkg',
 {'BINARY': True,
  'DATA': True,
  'EXECUTABLE': True,
  'EXTENSION': True,
  'PYMODULE': True,
  'PYSOURCE': True,
  'PYZ': False,
  'SPLASH': True,
  'SYMLINK': False},
 [('pyi-contents-directory _internal', '', 'OPTION'),
  ('PYZ-00.pyz',
   'C:\\___\\fancy-font-generator\\build\\Fancy Font Generator '
   'V1.0\\PYZ-00.pyz',
   'PYZ'),
  ('struct',
   'C:\\___\\fancy-font-generator\\build\\Fancy Font Generator '
   'V1.0\\localpycs\\struct.pyc',
   'PYMODULE'),
  ('pyimod01_archive',
   'C:\\___\\fancy-font-generator\\build\\Fancy Font Generator '
   'V1.0\\localpycs\\pyimod01_archive.pyc',
   'PYMODULE'),
  ('pyimod02_importers',
   'C:\\___\\fancy-font-generator\\build\\Fancy Font Generator '
   'V1.0\\localpycs\\pyimod02_importers.pyc',
   'PYMODULE'),
  ('pyimod03_ctypes',
   'C:\\___\\fancy-font-generator\\build\\Fancy Font Generator '
   'V1.0\\localpycs\\pyimod03_ctypes.pyc',
   'PYMODULE'),
  ('pyimod04_pywin32',
   'C:\\___\\fancy-font-generator\\build\\Fancy Font Generator '
   'V1.0\\localpycs\\pyimod04_pywin32.pyc',
   'PYMODULE'),
  ('pyiboot01_bootstrap',
   'C:\\Users\\C5-User\\AppData\\Local\\Programs\\Python\\Python311\\Lib\\site-packages\\PyInstaller\\loader\\pyiboot01_bootstrap.py',
   'PYSOURCE'),
  ('pyi_rth_inspect',
   'C:\\Users\\C5-User\\AppData\\Local\\Programs\\Python\\Python311\\Lib\\site-packages\\PyInstaller\\hooks\\rthooks\\pyi_rth_inspect.py',
   'PYSOURCE'),
  ('main', 'C:\\___\\fancy-font-generator\\src\\main.py', 'PYSOURCE'),
  ('python311.dll',
   'C:\\Users\\C5-User\\AppData\\Local\\Programs\\Python\\Python311\\python311.dll',
   'BINARY'),
  ('_decimal.pyd',
   'C:\\Users\\C5-User\\AppData\\Local\\Programs\\Python\\Python311\\DLLs\\_decimal.pyd',
   'EXTENSION'),
  ('_hashlib.pyd',
   'C:\\Users\\C5-User\\AppData\\Local\\Programs\\Python\\Python311\\DLLs\\_hashlib.pyd',
   'EXTENSION'),
  ('_lzma.pyd',
   'C:\\Users\\C5-User\\AppData\\Local\\Programs\\Python\\Python311\\DLLs\\_lzma.pyd',
   'EXTENSION'),
  ('_bz2.pyd',
   'C:\\Users\\C5-User\\AppData\\Local\\Programs\\Python\\Python311\\DLLs\\_bz2.pyd',
   'EXTENSION'),
  ('unicodedata.pyd',
   'C:\\Users\\C5-User\\AppData\\Local\\Programs\\Python\\Python311\\DLLs\\unicodedata.pyd',
   'EXTENSION'),
  ('select.pyd',
   'C:\\Users\\C5-User\\AppData\\Local\\Programs\\Python\\Python311\\DLLs\\select.pyd',
   'EXTENSION'),
  ('_socket.pyd',
   'C:\\Users\\C5-User\\AppData\\Local\\Programs\\Python\\Python311\\DLLs\\_socket.pyd',
   'EXTENSION'),
  ('VCRUNTIME140.dll',
   'C:\\Users\\C5-User\\AppData\\Local\\Programs\\Python\\Python311\\VCRUNTIME140.dll',
   'BINARY'),
  ('libcrypto-1_1.dll',
   'C:\\Users\\C5-User\\AppData\\Local\\Programs\\Python\\Python311\\DLLs\\libcrypto-1_1.dll',
   'BINARY'),
  ('base_library.zip',
   'C:\\___\\fancy-font-generator\\build\\Fancy Font Generator '
   'V1.0\\base_library.zip',
   'DATA')],
 'python311.dll',
 False,
 False,
 False,
 [],
 None,
 None,
 None)
